%YAML 1.1
%TAG !u! tag:unity3d.com,2011:
--- !u!1 &563429821814700958
GameObject:
  m_ObjectHideFlags: 0
  m_CorrespondingSourceObject: {fileID: 0}
  m_PrefabInstance: {fileID: 0}
  m_PrefabAsset: {fileID: 0}
  serializedVersion: 6
  m_Component:
  - component: {fileID: 563429821814700945}
  - component: {fileID: 563429821814700944}
  - component: {fileID: 50096852800369000}
  - component: {fileID: 60470610635271242}
  - component: {fileID: 6797421594970968662}
  - component: {fileID: 114961549192677368}
  m_Layer: 9
  m_Name: SmallSatelite
  m_TagString: Satellite
  m_Icon: {fileID: 0}
  m_NavMeshLayer: 0
  m_StaticEditorFlags: 0
  m_IsActive: 1
--- !u!4 &563429821814700945
Transform:
  m_ObjectHideFlags: 0
  m_CorrespondingSourceObject: {fileID: 0}
  m_PrefabInstance: {fileID: 0}
  m_PrefabAsset: {fileID: 0}
  m_GameObject: {fileID: 563429821814700958}
  m_LocalRotation: {x: 0, y: 0, z: 0, w: 1}
  m_LocalPosition: {x: 0, y: 0, z: 0}
  m_LocalScale: {x: 1, y: 1, z: 1}
  m_Children: []
  m_Father: {fileID: 0}
  m_RootOrder: 0
  m_LocalEulerAnglesHint: {x: 0, y: 0, z: 0}
--- !u!212 &563429821814700944
SpriteRenderer:
  m_ObjectHideFlags: 0
  m_CorrespondingSourceObject: {fileID: 0}
  m_PrefabInstance: {fileID: 0}
  m_PrefabAsset: {fileID: 0}
  m_GameObject: {fileID: 563429821814700958}
  m_Enabled: 1
  m_CastShadows: 0
  m_ReceiveShadows: 0
  m_DynamicOccludee: 1
  m_MotionVectors: 1
  m_LightProbeUsage: 1
  m_ReflectionProbeUsage: 1
  m_RenderingLayerMask: 1
  m_RendererPriority: 0
  m_Materials:
  - {fileID: 10754, guid: 0000000000000000f000000000000000, type: 0}
  m_StaticBatchInfo:
    firstSubMesh: 0
    subMeshCount: 0
  m_StaticBatchRoot: {fileID: 0}
  m_ProbeAnchor: {fileID: 0}
  m_LightProbeVolumeOverride: {fileID: 0}
  m_ScaleInLightmap: 1
  m_PreserveUVs: 0
  m_IgnoreNormalsForChartDetection: 0
  m_ImportantGI: 0
  m_StitchLightmapSeams: 0
  m_SelectedEditorRenderState: 0
  m_MinimumChartSize: 4
  m_AutoUVMaxDistance: 0.5
  m_AutoUVMaxAngle: 89
  m_LightmapParameters: {fileID: 0}
  m_SortingLayerID: 0
  m_SortingLayer: 0
  m_SortingOrder: 0
  m_Sprite: {fileID: 21300000, guid: d3cebe7ebb963b44abd3f191347f5e7e, type: 3}
  m_Color: {r: 1, g: 1, b: 1, a: 1}
  m_FlipX: 0
  m_FlipY: 0
  m_DrawMode: 0
  m_Size: {x: 4, y: 4}
  m_AdaptiveModeThreshold: 0.5
  m_SpriteTileMode: 0
  m_WasSpriteAssigned: 1
  m_MaskInteraction: 0
  m_SpriteSortPoint: 0
--- !u!50 &50096852800369000
Rigidbody2D:
  serializedVersion: 4
  m_ObjectHideFlags: 0
  m_CorrespondingSourceObject: {fileID: 0}
  m_PrefabInstance: {fileID: 0}
  m_PrefabAsset: {fileID: 0}
  m_GameObject: {fileID: 563429821814700958}
  m_BodyType: 0
  m_Simulated: 1
  m_UseFullKinematicContacts: 0
  m_UseAutoMass: 1
  m_Mass: 1.453125
  m_LinearDrag: 0
  m_AngularDrag: 0.05
  m_GravityScale: 0
  m_Material: {fileID: 0}
  m_Interpolate: 0
  m_SleepingMode: 1
  m_CollisionDetection: 0
  m_Constraints: 0
--- !u!60 &60470610635271242
PolygonCollider2D:
  m_ObjectHideFlags: 0
  m_CorrespondingSourceObject: {fileID: 0}
  m_PrefabInstance: {fileID: 0}
  m_PrefabAsset: {fileID: 0}
  m_GameObject: {fileID: 563429821814700958}
  m_Enabled: 1
  m_Density: 1
  m_Material: {fileID: 0}
  m_IsTrigger: 0
  m_UsedByEffector: 0
  m_UsedByComposite: 0
  m_Offset: {x: 0, y: 0}
  m_SpriteTilingProperty:
    border: {x: 0, y: 0, z: 0, w: 0}
    pivot: {x: 0.5, y: 0.5}
    oldSize: {x: 4, y: 4}
    newSize: {x: 4, y: 4}
    adaptiveTilingThreshold: 0.5
    drawMode: 0
    adaptiveTiling: 0
  m_AutoTiling: 0
  m_Points:
    m_Paths:
    - - {x: -0.125, y: -0.4375}
      - {x: 0.125, y: -0.4375}
      - {x: 0.25, y: -0.375}
      - {x: 0.3125, y: -0.3125}
      - {x: 0.5, y: -0.3125}
      - {x: 0.5625, y: -0.5}
      - {x: 0.625, y: -0.6875}
      - {x: 0.6875, y: -0.6875}
      - {x: 0.6875, y: -0.5}
      - {x: 0.625, y: -0.3125}
      - {x: 0.625, y: -0.0625}
      - {x: 0.6875, y: 0}
      - {x: 0.6875, y: 0.125}
      - {x: 0.5625, y: 0.1875}
      - {x: 0.5625, y: 0.5}
      - {x: 0.5, y: 0.625}
      - {x: 0.3125, y: 0.8125}
      - {x: 0.1875, y: 0.875}
      - {x: -0.1875, y: 0.875}
      - {x: -0.3125, y: 0.8125}
      - {x: -0.5, y: 0.625}
      - {x: -0.5625, y: 0.5}
      - {x: -0.5625, y: 0.1875}
      - {x: -0.6875, y: 0.125}
      - {x: -0.6875, y: 0}
      - {x: -0.625, y: -0.0625}
      - {x: -0.625, y: -0.3125}
      - {x: -0.6875, y: -0.5}
      - {x: -0.6875, y: -0.6875}
      - {x: -0.625, y: -0.6875}
      - {x: -0.5625, y: -0.5}
      - {x: -0.5, y: -0.3125}
      - {x: -0.3125, y: -0.3125}
      - {x: -0.25, y: -0.375}
--- !u!60 &6797421594970968662
PolygonCollider2D:
  m_ObjectHideFlags: 0
  m_CorrespondingSourceObject: {fileID: 0}
  m_PrefabInstance: {fileID: 0}
  m_PrefabAsset: {fileID: 0}
  m_GameObject: {fileID: 563429821814700958}
  m_Enabled: 0
  m_Density: 1
  m_Material: {fileID: 0}
  m_IsTrigger: 0
  m_UsedByEffector: 0
  m_UsedByComposite: 0
  m_Offset: {x: 0, y: 0}
  m_SpriteTilingProperty:
    border: {x: 0, y: 0, z: 0, w: 0}
    pivot: {x: 0.5, y: 0.5}
    oldSize: {x: 4, y: 4}
    newSize: {x: 4, y: 4}
    adaptiveTilingThreshold: 0.5
    drawMode: 0
    adaptiveTiling: 0
  m_AutoTiling: 0
  m_Points:
    m_Paths:
    - - {x: 0, y: -0.375}
      - {x: 0.375, y: -0.25}
      - {x: 0.5625, y: -0.125}
      - {x: 0.6875, y: 0}
      - {x: 0.6875, y: 0.125}
      - {x: 0.5625, y: 0.3125}
      - {x: 0.375, y: 0.5}
      - {x: 0.3125, y: 0.625}
      - {x: 0.25, y: 0.8125}
      - {x: 0.1875, y: 0.875}
      - {x: -0.1875, y: 0.875}
      - {x: -0.3125, y: 0.8125}
      - {x: -0.5, y: 0.625}
      - {x: -0.5625, y: 0.5}
      - {x: -0.5625, y: 0.1875}
      - {x: -0.6875, y: 0.125}
      - {x: -0.6875, y: 0}
      - {x: -0.625, y: -0.0625}
      - {x: -0.625, y: -0.3125}
      - {x: -0.625, y: -0.4375}
      - {x: -0.5625, y: -0.4375}
      - {x: -0.5, y: -0.3125}
      - {x: -0.3125, y: -0.3125}
      - {x: -0.25, y: -0.375}
--- !u!114 &114961549192677368
MonoBehaviour:
  m_ObjectHideFlags: 0
  m_CorrespondingSourceObject: {fileID: 0}
  m_PrefabInstance: {fileID: 0}
  m_PrefabAsset: {fileID: 0}
  m_GameObject: {fileID: 563429821814700958}
  m_Enabled: 1
  m_EditorHideFlags: 0
  m_Script: {fileID: 11500000, guid: c546354461544baea90fccf1cd51be31, type: 3}
  m_Name: 
  m_EditorClassIdentifier: 
  hp: 5
  speed: 10
  explosion: {fileID: 2399210707765426077, guid: 5f47b73751a54304280de772ddd43ece,
    type: 3}
  tokens:
  - {fileID: 8239777350753895624, guid: 0b18f5962ce552f468e597349e5ac4ef, type: 3}
  - {fileID: 2391987209272521472, guid: 6ca9c4647e6cf844fbd60b61cd3c1003, type: 3}
  - {fileID: 5206017914510008950, guid: ec64764dc60a0d1438d48d7a0a778ee0, type: 3}
  sprites:
  - {fileID: 21300000, guid: d3cebe7ebb963b44abd3f191347f5e7e, type: 3}
  - {fileID: 21300000, guid: 3435751526082ce429570ffb9c459000, type: 3}
  smallExplosions:
  - {fileID: 2219851993921542332, guid: f3d73e69d4a2cb9488daac8d2d826eb8, type: 3}
