%YAML 1.1
%TAG !u! tag:unity3d.com,2011:
--- !u!1 &2602309900522341031
GameObject:
  m_ObjectHideFlags: 0
  m_CorrespondingSourceObject: {fileID: 0}
  m_PrefabInstance: {fileID: 0}
  m_PrefabAsset: {fileID: 0}
  serializedVersion: 6
  m_Component:
  - component: {fileID: 2602309900522341025}
  - component: {fileID: 2602309900522341026}
  - component: {fileID: 2602309900522341027}
  - component: {fileID: 2602309900522341029}
  - component: {fileID: 4768078698358330993}
  - component: {fileID: 3479388493751944869}
  m_Layer: 9
  m_Name: Commander
  m_TagString: Enemy
  m_Icon: {fileID: 0}
  m_NavMeshLayer: 0
  m_StaticEditorFlags: 0
  m_IsActive: 1
--- !u!4 &2602309900522341025
Transform:
  m_ObjectHideFlags: 0
  m_CorrespondingSourceObject: {fileID: 0}
  m_PrefabInstance: {fileID: 0}
  m_PrefabAsset: {fileID: 0}
  m_GameObject: {fileID: 2602309900522341031}
  m_LocalRotation: {x: 0, y: 0, z: 0, w: 1}
  m_LocalPosition: {x: 0, y: 0, z: 0}
  m_LocalScale: {x: 1, y: 1, z: 1}
  m_Children: []
  m_Father: {fileID: 0}
  m_RootOrder: 0
  m_LocalEulerAnglesHint: {x: 0, y: 0, z: 0}
--- !u!212 &2602309900522341026
SpriteRenderer:
  m_ObjectHideFlags: 0
  m_CorrespondingSourceObject: {fileID: 0}
  m_PrefabInstance: {fileID: 0}
  m_PrefabAsset: {fileID: 0}
  m_GameObject: {fileID: 2602309900522341031}
  m_Enabled: 1
  m_CastShadows: 0
  m_ReceiveShadows: 0
  m_DynamicOccludee: 1
  m_MotionVectors: 1
  m_LightProbeUsage: 1
  m_ReflectionProbeUsage: 1
  m_RenderingLayerMask: 1
  m_RendererPriority: 0
  m_Materials:
  - {fileID: 10754, guid: 0000000000000000f000000000000000, type: 0}
  m_StaticBatchInfo:
    firstSubMesh: 0
    subMeshCount: 0
  m_StaticBatchRoot: {fileID: 0}
  m_ProbeAnchor: {fileID: 0}
  m_LightProbeVolumeOverride: {fileID: 0}
  m_ScaleInLightmap: 1
  m_PreserveUVs: 0
  m_IgnoreNormalsForChartDetection: 0
  m_ImportantGI: 0
  m_StitchLightmapSeams: 0
  m_SelectedEditorRenderState: 0
  m_MinimumChartSize: 4
  m_AutoUVMaxDistance: 0.5
  m_AutoUVMaxAngle: 89
  m_LightmapParameters: {fileID: 0}
  m_SortingLayerID: -499149067
  m_SortingLayer: 3
  m_SortingOrder: 0
  m_Sprite: {fileID: 21300000, guid: f3f6a375b40216e44b804489d5f5f446, type: 3}
  m_Color: {r: 1, g: 1, b: 1, a: 1}
  m_FlipX: 0
  m_FlipY: 0
  m_DrawMode: 0
  m_Size: {x: 2, y: 2}
  m_AdaptiveModeThreshold: 0.5
  m_SpriteTileMode: 0
  m_WasSpriteAssigned: 1
  m_MaskInteraction: 0
  m_SpriteSortPoint: 0
--- !u!95 &2602309900522341027
Animator:
  serializedVersion: 3
  m_ObjectHideFlags: 0
  m_CorrespondingSourceObject: {fileID: 0}
  m_PrefabInstance: {fileID: 0}
  m_PrefabAsset: {fileID: 0}
  m_GameObject: {fileID: 2602309900522341031}
  m_Enabled: 1
  m_Avatar: {fileID: 0}
  m_Controller: {fileID: 9100000, guid: 35897424dd310e84ebfd4999cb0d3cb7, type: 2}
  m_CullingMode: 0
  m_UpdateMode: 0
  m_ApplyRootMotion: 0
  m_LinearVelocityBlending: 0
  m_WarningMessage: 
  m_HasTransformHierarchy: 1
  m_AllowConstantClipSamplingOptimization: 1
  m_KeepAnimatorControllerStateOnDisable: 0
--- !u!50 &2602309900522341029
Rigidbody2D:
  serializedVersion: 4
  m_ObjectHideFlags: 0
  m_CorrespondingSourceObject: {fileID: 0}
  m_PrefabInstance: {fileID: 0}
  m_PrefabAsset: {fileID: 0}
  m_GameObject: {fileID: 2602309900522341031}
  m_BodyType: 0
  m_Simulated: 1
  m_UseFullKinematicContacts: 0
  m_UseAutoMass: 1
  m_Mass: 2.0742188
  m_LinearDrag: 0
  m_AngularDrag: 0.05
  m_GravityScale: 0
  m_Material: {fileID: 0}
  m_Interpolate: 0
  m_SleepingMode: 1
  m_CollisionDetection: 0
  m_Constraints: 4
--- !u!60 &4768078698358330993
PolygonCollider2D:
  m_ObjectHideFlags: 0
  m_CorrespondingSourceObject: {fileID: 0}
  m_PrefabInstance: {fileID: 0}
  m_PrefabAsset: {fileID: 0}
  m_GameObject: {fileID: 2602309900522341031}
  m_Enabled: 1
  m_Density: 1
  m_Material: {fileID: 0}
  m_IsTrigger: 0
  m_UsedByEffector: 0
  m_UsedByComposite: 0
  m_Offset: {x: 0, y: 0}
  m_SpriteTilingProperty:
    border: {x: 0, y: 0, z: 0, w: 0}
    pivot: {x: 0.5, y: 0.5}
    oldSize: {x: 2, y: 2}
    newSize: {x: 2, y: 2}
    adaptiveTilingThreshold: 0.5
    drawMode: 0
    adaptiveTiling: 0
  m_AutoTiling: 0
  m_Points:
    m_Paths:
    - - {x: 0.3125, y: -0.8125}
      - {x: 0.5, y: -0.8125}
      - {x: 0.5625, y: -0.75}
      - {x: 0.5625, y: -0.125}
      - {x: 0.9375, y: -0.125}
      - {x: 1, y: -0.0625}
      - {x: 1, y: 0.0625}
      - {x: 0.9375, y: 0.125}
      - {x: 0.6875, y: 0.3125}
      - {x: 0.75, y: 0.375}
      - {x: 0.75, y: 0.4375}
      - {x: 0.6875, y: 0.5}
      - {x: 0.25, y: 0.75}
      - {x: -0.25, y: 0.75}
      - {x: -0.6875, y: 0.5}
      - {x: -0.75, y: 0.4375}
      - {x: -0.75, y: 0.375}
      - {x: -0.6875, y: 0.3125}
      - {x: -0.9375, y: 0.125}
      - {x: -1, y: 0.0625}
      - {x: -1, y: -0.0625}
      - {x: -0.9375, y: -0.125}
      - {x: -0.5625, y: -0.125}
      - {x: -0.5625, y: -0.75}
      - {x: -0.5, y: -0.8125}
      - {x: -0.3125, y: -0.8125}
      - {x: -0.1875, y: -0.8125}
      - {x: 0.1875, y: -0.8125}
--- !u!114 &3479388493751944869
MonoBehaviour:
  m_ObjectHideFlags: 0
  m_CorrespondingSourceObject: {fileID: 0}
  m_PrefabInstance: {fileID: 0}
  m_PrefabAsset: {fileID: 0}
  m_GameObject: {fileID: 2602309900522341031}
  m_Enabled: 1
  m_EditorHideFlags: 0
  m_Script: {fileID: 11500000, guid: a5167039a7e23ba4aaf1c4e8c8f85daf, type: 3}
  m_Name: 
  m_EditorClassIdentifier: 
  explosion: {fileID: 2219851993921542332, guid: f3d73e69d4a2cb9488daac8d2d826eb8,
    type: 3}
  hp: 3
  speed: 10
  laserInfo:
    laserPrefab: {fileID: 114057528415018570, guid: dad9e45c016d55845bb8d61eed89f6f2,
      type: 3}
    color: {r: 0, g: 1, b: 0.083333254, a: 1}
  gunsTransforms:
  - {x: -0.43, y: -1.1, z: 0}
  - {x: 0.43, y: -1.1, z: 0}
  collisions:
    serializedVersion: 2
    m_Bits: 4096
